module gitlab.com/easbarba/koto

go 1.23.0

require (
	github.com/atotto/clipboard v0.1.4 // indirect
	github.com/aymanbagabas/go-osc52/v2 v2.0.1 // indirect
	github.com/catppuccin/go v0.2.0 // indirect
	github.com/charmbracelet/bubbles v0.19.0 // indirect
	github.com/charmbracelet/bubbletea v0.27.0 // indirect
	github.com/charmbracelet/huh v0.5.3 // indirect
	github.com/charmbracelet/lipgloss v0.13.0 // indirect
	github.com/charmbracelet/x/ansi v0.2.2 // indirect
	github.com/charmbracelet/x/exp/strings v0.0.0-20240722160745-212f7b056ed0 // indirect
	github.com/charmbracelet/x/term v0.2.0 // indirect
	github.com/dustin/go-humanize v1.0.1 // indirect
	github.com/erikgeiser/coninput v0.0.0-20211004153227-1c3628e74d0f // indirect
	github.com/lucasb-eyer/go-colorful v1.2.0 // indirect
	github.com/mattn/go-isatty v0.0.20 // indirect
	github.com/mattn/go-localereader v0.0.1 // indirect
	github.com/mattn/go-runewidth v0.0.16 // indirect
	github.com/mitchellh/hashstructure/v2 v2.0.2 // indirect
	github.com/muesli/ansi v0.0.0-20230316100256-276c6243b2f6 // indirect
	github.com/muesli/cancelreader v0.2.2 // indirect
	github.com/muesli/termenv v0.15.3-0.20240618155329-98d742f6907a // indirect
	github.com/rivo/uniseg v0.4.7 // indirect
	golang.org/x/sync v0.8.0 // indirect
	golang.org/x/sys v0.24.0 // indirect
	golang.org/x/text v0.16.0 // indirect
	gopkg.in/yaml.v3 v3.0.1 // indirect
)
